STARTFONT 2.1
COMMENT This font was automatically resized by bdfresize-1.4
COMMENT   mag_x = 8/10, mag_y = 1/2, blackness = 4
FONT -tomabechi-fixed-medium-r-normal--16-160-72-72-m-80-MuleTibetan-1
SIZE 16 72 72
FONTBOUNDINGBOX 8 19 0 -6
STARTPROPERTIES 22
FOUNDRY "tomabechi"
FAMILY_NAME "fixed"
WEIGHT_NAME "medium"
SLANT "r"
SETWIDTH_NAME "normal"
ADD_STYLE_NAME ""
PIXEL_SIZE 16
POINT_SIZE 160
RESOLUTION_X 72
RESOLUTION_Y 72
SPACING "m"
AVERAGE_WIDTH 80
CHARSET_REGISTRY "MuleTibetan"
CHARSET_ENCODING "1"
STRIKEOUT_ASCENT 13
STRIKEOUT_DESCENT 6
X_HEIGHT 13
COPYRIGHT "Original design (C) Christopher FYNN 1993-1994"
WEIGHT 10
FONT_ASCENT 13
FONT_DESCENT 6
DEFAULT_CHAR 8481
ENDPROPERTIES
CHARS 8
STARTCHAR space
ENCODING 8481
SWIDTH 1000 0
DWIDTH 8 0
BBX 8 16 0 -6
BITMAP
ff
81
81
81
81
81
81
81
81
81
81
81
81
81
81
ff
ENDCHAR
STARTCHAR char8507
ENCODING 8507
SWIDTH 1000 0
DWIDTH 8 0
BBX 5 3 2 6
BITMAP
f8
70
20
ENDCHAR
STARTCHAR char8509
ENCODING 8509
SWIDTH 1000 0
DWIDTH 8 0
BBX 3 15 3 -6
BITMAP
e0
c0
c0
c0
c0
c0
c0
c0
80
80
80
80
80
80
80
ENDCHAR
STARTCHAR char8511
ENCODING 8511
SWIDTH 1000 0
DWIDTH 8 0
BBX 3 15 2 -6
BITMAP
e0
40
00
e0
40
40
40
40
40
40
40
40
40
40
40
ENDCHAR
STARTCHAR TIBETAN SIGN GNYIS TSHEG SHAD
ENCODING 8512
SWIDTH 1000 0
DWIDTH 8 0
BBX 3 15 3 -6
BITMAP
e0
40
00
e0
40
00
e0
40
40
40
40
40
40
40
40
ENDCHAR
STARTCHAR c2141
ENCODING 8513
SWIDTH 1000 0
DWIDTH 8 0
BBX 5 15 2 -6
BITMAP
d8
50
00
70
20
00
70
20
20
20
20
20
20
20
20
ENDCHAR
STARTCHAR char8516
ENCODING 8516
SWIDTH 1000 0
DWIDTH 8 0
BBX 6 9 1 -1
BITMAP
78
cc
78
00
fc
00
78
cc
78
ENDCHAR
STARTCHAR c2260
ENCODING 8800
SWIDTH 1000 0
DWIDTH 8 0
BBX 6 9 1 -1
BITMAP
78
cc
78
00
00
00
78
cc
78
ENDCHAR
ENDFONT
